<?xml version="1.0" standalone="no"?>
<!DOCTYPE svg PUBLIC "-//W3C//DTD SVG 20010904//EN"
 "http://www.w3.org/TR/2001/REC-SVG-20010904/DTD/svg10.dtd">
<svg version="1.0" xmlns="http://www.w3.org/2000/svg"
 width="512.000000pt" height="512.000000pt" viewBox="0 0 512.000000 512.000000"
 preserveAspectRatio="xMidYMid meet">
<metadata>
Created by potrace 1.15, written by Peter Selinger 2001-2017
</metadata>
<g transform="translate(0.000000,512.000000) scale(0.100000,-0.100000)"
fill="#000000" stroke="none">
<path d="M2996 4761 c-3 -4 6 -6 19 -3 14 2 25 0 25 -4 0 -5 14 -94 30 -198
16 -104 27 -192 25 -195 -2 -3 29 -5 69 -3 l73 3 -12 47 c-7 26 -15 64 -18 84
-6 37 -5 37 31 43 71 12 66 14 -28 10 -63 -3 -83 -1 -60 4 19 5 27 9 18 10
-19 1 -21 8 -38 104 -8 45 -20 75 -33 88 -27 25 -35 24 -40 -3 l-4 -23 -2 23
c-1 16 -7 22 -25 22 -14 0 -27 -4 -30 -9z"/>
<path d="M2405 4679 c22 -6 14 -7 -30 -4 -45 3 -54 2 -35 -5 21 -8 19 -9 -13
-5 -25 2 -35 0 -31 -7 5 -7 -11 -9 -52 -5 -43 4 -51 3 -29 -3 23 -7 17 -8 -25
-4 -61 5 -94 -2 -83 -19 4 -7 -8 -8 -38 -4 -24 4 -80 1 -124 -5 -68 -11 -75
-14 -50 -20 22 -5 18 -6 -15 -3 -25 3 -81 -1 -125 -7 -68 -11 -75 -14 -50 -20
22 -5 18 -6 -15 -3 -25 3 -81 -1 -125 -7 -68 -11 -75 -14 -50 -20 22 -5 18 -6
-15 -3 -25 3 -81 -1 -125 -7 -68 -11 -75 -14 -50 -20 22 -5 18 -6 -15 -3 -25
3 -81 -1 -125 -7 -68 -11 -75 -14 -50 -20 21 -5 16 -6 -17 -3 -27 3 -69 2 -95
-2 -46 -7 -47 -7 -18 -15 20 -5 10 -6 -30 -3 -43 3 -52 1 -30 -4 l30 -9 -32
-1 c-18 0 -33 3 -33 7 0 4 -28 3 -63 -2 -55 -10 -59 -11 -32 -18 19 -4 8 -6
-30 -3 -47 3 -53 2 -30 -5 25 -8 22 -9 -17 -5 -27 3 -69 2 -95 -2 -46 -7 -47
-7 -18 -15 20 -5 10 -6 -30 -3 -43 3 -52 1 -30 -4 l30 -9 -32 -1 c-18 0 -33 3
-33 8 0 4 -12 6 -27 3 l-28 -6 25 -7 c15 -5 2 -6 -35 -4 -47 3 -54 2 -30 -5
26 -8 25 -9 -15 -5 -58 5 -98 -18 -106 -62 -6 -32 2 -179 11 -193 2 -3 6 -24
9 -46 12 -83 16 -110 22 -149 9 -48 10 -57 18 -115 3 -25 9 -58 12 -73 6 -30
8 -43 18 -117 3 -25 9 -58 12 -73 6 -30 8 -43 18 -117 3 -25 9 -58 12 -73 6
-30 8 -43 18 -117 3 -25 9 -58 12 -73 6 -30 8 -43 18 -117 3 -25 9 -58 12 -73
6 -30 8 -43 18 -117 3 -25 9 -58 12 -73 6 -30 8 -43 18 -117 3 -25 9 -58 12
-73 6 -30 8 -43 18 -117 3 -25 9 -58 12 -73 6 -30 8 -43 18 -117 3 -25 9 -58
12 -73 6 -30 8 -43 18 -117 3 -25 9 -58 12 -73 6 -30 8 -43 18 -117 3 -25 9
-58 12 -73 6 -30 8 -43 18 -117 3 -25 9 -58 12 -73 6 -30 8 -43 18 -117 3 -25
9 -58 12 -73 6 -30 8 -43 18 -117 3 -25 9 -58 12 -73 6 -30 8 -43 18 -117 3
-25 9 -58 12 -73 6 -30 8 -43 18 -117 3 -25 9 -58 12 -73 6 -30 8 -43 18 -117
3 -25 9 -58 12 -73 6 -30 8 -43 18 -117 3 -25 9 -58 12 -73 6 -30 8 -43 18
-117 3 -25 9 -57 12 -72 3 -15 7 -39 9 -55 13 -91 25 -121 56 -135 27 -13 108
-15 169 -4 26 5 71 12 138 22 20 3 46 7 57 9 11 2 40 7 65 10 25 4 54 8 65 10
11 2 38 6 60 10 72 11 110 16 135 21 14 2 41 6 60 9 19 3 46 7 60 9 14 3 45 8
70 11 25 4 54 8 65 10 11 2 37 6 58 9 20 3 54 9 75 12 20 3 46 7 57 9 11 2 37
6 58 9 48 8 107 17 132 21 11 2 40 6 65 10 25 3 54 8 65 10 11 2 40 6 65 10
25 3 54 8 65 10 11 2 40 7 65 10 25 4 54 8 65 10 11 2 37 6 58 9 20 3 54 9 75
12 20 3 48 7 62 10 14 2 41 6 60 9 19 3 46 7 60 9 14 3 45 8 70 11 25 4 54 8
65 10 11 2 37 6 58 9 20 3 54 9 75 12 20 3 46 7 57 9 11 2 37 6 58 9 51 8 108
17 132 21 11 2 45 6 75 10 113 12 140 30 150 98 4 34 9 42 25 40 11 -2 49 -5
85 -7 36 -3 101 -9 145 -13 143 -14 203 -8 249 24 69 47 87 98 101 286 3 31 7
84 10 117 3 33 7 87 10 120 3 33 7 86 10 118 2 31 7 91 10 132 10 121 13 161
20 240 3 41 8 95 10 120 2 25 7 79 10 120 8 94 12 146 19 235 6 72 12 143 21
255 6 65 11 130 19 238 6 68 16 190 21 252 5 59 14 161 20 230 13 154 16 191
21 255 7 89 11 141 19 235 3 41 8 95 10 120 9 114 16 199 20 245 2 28 7 86 12
130 23 240 -9 319 -144 358 -29 9 -53 12 -53 7 0 -5 -10 -11 -22 -13 -13 -2
-1 -3 25 0 37 3 47 1 41 -8 -5 -8 -2 -10 9 -6 9 3 18 0 21 -9 3 -9 11 -12 16
-9 6 4 10 3 9 -2 -3 -20 2 -34 11 -28 6 4 7 -1 3 -11 -4 -10 -2 -15 3 -11 6 3
9 -5 8 -21 -2 -15 -11 -127 -20 -249 l-17 -223 -74 0 -73 0 -2 -37 c-1 -34 -2
-33 -7 12 -7 56 -4 91 -157 -1745 -53 -641 -98 -1166 -99 -1168 -2 -2 -301 22
-406 34 l-57 6 -26 167 c-14 91 -26 172 -26 179 0 15 78 15 225 2 55 -5 101
-7 103 -5 6 6 41 459 36 464 -2 3 -102 13 -221 23 -123 10 -220 23 -224 29 -3
6 -12 50 -18 97 -7 48 -15 97 -18 110 -5 21 -3 22 64 22 37 0 151 -7 252 -15
101 -9 185 -15 186 -13 6 6 38 458 33 464 -5 4 -147 17 -518 46 l-35 3 -11
-115 c-6 -73 -13 -106 -17 -90 -3 14 -27 153 -51 310 -43 270 -44 291 -36 395
5 61 9 136 9 168 1 56 0 57 -26 57 -16 0 -33 4 -39 8 -6 4 -17 45 -23 92 -7
47 -15 97 -18 113 l-5 27 65 0 65 0 6 58 c14 144 28 383 22 389 -3 3 -6 -16
-6 -44 0 -46 -2 -51 -20 -46 -18 5 -25 20 -21 49 1 6 -6 17 -14 24 -25 21 -17
30 28 31 30 2 34 3 12 5 -16 2 -70 9 -119 15 -73 9 -90 9 -98 -2 -8 -11 -9
-10 -5 3 3 9 -4 74 -16 145 -12 70 -23 120 -25 111 -3 -17 -76 -18 -1348 -18
l-1344 0 -1 -22 c-1 -21 -7 2 -24 101 -5 27 -9 31 -17 20 -8 -12 -9 -12 -5 1
2 8 15 18 28 22 13 5 469 78 1014 163 1167 183 1067 167 1035 176 -14 4 -36 7
-50 7 -23 0 -22 -1 5 -9z m155 -1342 c0 -2 -74 -163 -165 -358 -91 -194 -168
-363 -171 -374 -4 -15 63 -94 295 -345 165 -179 298 -327 296 -329 -3 -2 -86
-17 -186 -32 l-181 -29 -42 47 c-296 340 -339 385 -349 368 -5 -10 -58 -128
-118 -263 -60 -135 -110 -246 -112 -248 -6 -7 -339 -56 -344 -51 -3 3 73 174
167 379 95 205 178 387 186 404 l13 30 -279 299 c-154 164 -278 300 -276 303
2 2 84 16 182 32 146 23 180 25 189 15 60 -78 330 -383 335 -380 3 2 53 111
109 243 l103 239 157 25 c160 26 191 30 191 25z"/>
<path d="M3561 3808 c-6 -79 -14 -184 -17 -233 l-7 -90 274 -21 c151 -12 275
-21 275 -20 4 4 35 458 32 461 -2 2 -49 6 -103 9 -111 5 -102 0 18 -9 l77 -7
-1 -41 c-1 -23 -4 -32 -6 -19 l-4 22 -260 0 -259 0 0 39 c0 39 1 40 38 44 l37
4 -41 1 -41 2 -12 -142z"/>
<path d="M3496 3009 c-9 -127 -16 -233 -14 -234 6 -7 540 -46 546 -41 5 6 43
458 39 462 -2 2 -524 44 -542 44 -7 0 -18 -89 -29 -231z"/>
</g>
</svg>
